{
    "_roomList": [{
        "_roomNumber": "166",
        "_address": "15 Research Way, Clayton VIC 3170, Australia",
        "_lightsOn": true,
        "_heatingCoolingOn": true,
        "_seatsUsed": 15,
        "_seatsTotal": 20,
        "_timeChecked": "2018-01-05T09:58:11.000000"
    }, {
        "_roomNumber": "197",
        "_address": "22 College Walk, Clayton VIC 3170, Australia",
        "_lightsOn": true,
        "_heatingCoolingOn": true,
        "_seatsUsed": 3,
        "_seatsTotal": 15,
        "_timeChecked": "2018-11-02T12:52:45.000000"
    }, {
        "_roomNumber": "114",
        "_address": "18 Alliance Lane, Clayton VIC 3170, Australia",
        "_lightsOn": true,
        "_heatingCoolingOn": true,
        "_seatsUsed": 11,
        "_seatsTotal": 20,
        "_timeChecked": "2018-04-12T15:19:08.000000"
    }, {
        "_roomNumber": "136",
        "_address": "2 Research Way, Clayton VIC 3170, Australia",
        "_lightsOn": false,
        "_heatingCoolingOn": true,
        "_seatsUsed": 8,
        "_seatsTotal": 17,
        "_timeChecked": "2018-04-21T09:26:11.000000"
    }, {
        "_roomNumber": "315",
        "_address": "12 College Walk, Clayton VIC 3170, Australia",
        "_lightsOn": true,
        "_heatingCoolingOn": true,
        "_seatsUsed": 8,
        "_seatsTotal": 20,
        "_timeChecked": "2018-09-10T14:42:27.000000"
    }, {
        "_roomNumber": "165",
        "_address": "7 College Walk, Clayton VIC 3170, Australia",
        "_lightsOn": false,
        "_heatingCoolingOn": false,
        "_seatsUsed": 0,
        "_seatsTotal": 5,
        "_timeChecked": "2018-04-27T17:25:48.000000"
    }, {
        "_roomNumber": "257",
        "_address": "24 Research Way, Clayton VIC 3170, Australia",
        "_lightsOn": true,
        "_heatingCoolingOn": false,
        "_seatsUsed": 4,
        "_seatsTotal": 8,
        "_timeChecked": "2018-11-07T14:43:50.000000"
    }, {
        "_roomNumber": "391",
        "_address": "25 Innovation Walk, Clayton VIC 3170, Australia",
        "_lightsOn": false,
        "_heatingCoolingOn": true,
        "_seatsUsed": 7,
        "_seatsTotal": 9,
        "_timeChecked": "2018-08-12T15:44:40.000000"
    }, {
        "_roomNumber": "263",
        "_address": "19 Alliance Lane, Clayton VIC 3170, Australia",
        "_lightsOn": false,
        "_heatingCoolingOn": true,
        "_seatsUsed": 5,
        "_seatsTotal": 5,
        "_timeChecked": "2018-02-07T17:58:26.000000"
    }, {
        "_roomNumber": "191",
        "_address": "9 Innovation Walk, Clayton VIC 3170, Australia",
        "_lightsOn": false,
        "_heatingCoolingOn": true,
        "_seatsUsed": 1,
        "_seatsTotal": 2,
        "_timeChecked": "2018-01-20T16:11:00.000000"
    }, {
        "_roomNumber": "339",
        "_address": "10 Alliance Lane, Clayton VIC 3170, Australia",
        "_lightsOn": true,
        "_heatingCoolingOn": true,
        "_seatsUsed": 9,
        "_seatsTotal": 10,
        "_timeChecked": "2018-09-05T16:31:50.000000"
    }, {
        "_roomNumber": "257",
        "_address": "20 Alliance Lane, Clayton VIC 3170, Australia",
        "_lightsOn": false,
        "_heatingCoolingOn": true,
        "_seatsUsed": 14,
        "_seatsTotal": 17,
        "_timeChecked": "2018-10-23T17:12:39.000000"
    }, {
        "_roomNumber": "278",
        "_address": "4 Exhibition Walk, Clayton VIC 3170, Australia",
        "_lightsOn": false,
        "_heatingCoolingOn": true,
        "_seatsUsed": 0,
        "_seatsTotal": 3,
        "_timeChecked": "2018-09-12T14:01:15.000000"
    }, {
        "_roomNumber": "367",
        "_address": "25 College Walk, Clayton VIC 3170, Australia",
        "_lightsOn": false,
        "_heatingCoolingOn": false,
        "_seatsUsed": 2,
        "_seatsTotal": 7,
        "_timeChecked": "2018-03-11T13:26:05.000000"
    }, {
        "_roomNumber": "212",
        "_address": "4 Chancellor's Walk, Clayton VIC 3170, Australia",
        "_lightsOn": true,
        "_heatingCoolingOn": false,
        "_seatsUsed": 6,
        "_seatsTotal": 6,
        "_timeChecked": "2018-01-15T09:41:15.000000"
    }, {
        "_roomNumber": "238",
        "_address": "11 Exhibition Walk, Clayton VIC 3170, Australia",
        "_lightsOn": false,
        "_heatingCoolingOn": false,
        "_seatsUsed": 5,
        "_seatsTotal": 12,
        "_timeChecked": "2018-04-09T10:03:18.000000"
    }, {
        "_roomNumber": "192",
        "_address": "10 College Walk, Clayton VIC 3170, Australia",
        "_lightsOn": true,
        "_heatingCoolingOn": false,
        "_seatsUsed": 3,
        "_seatsTotal": 4,
        "_timeChecked": "2018-08-09T16:59:38.000000"
    }, {
        "_roomNumber": "118",
        "_address": "20 College Walk, Clayton VIC 3170, Australia",
        "_lightsOn": true,
        "_heatingCoolingOn": true,
        "_seatsUsed": 0,
        "_seatsTotal": 15,
        "_timeChecked": "2018-04-23T16:43:50.000000"
    }, {
        "_roomNumber": "118",
        "_address": "5 Research Way, Clayton VIC 3170, Australia",
        "_lightsOn": true,
        "_heatingCoolingOn": true,
        "_seatsUsed": 1,
        "_seatsTotal": 12,
        "_timeChecked": "2018-01-18T10:00:43.000000"
    }, {
        "_roomNumber": "287",
        "_address": "8 Innovation Walk, Clayton VIC 3170, Australia",
        "_lightsOn": false,
        "_heatingCoolingOn": false,
        "_seatsUsed": 0,
        "_seatsTotal": 0,
        "_timeChecked": "2018-08-01T13:13:29.000000"
    }, {
        "_roomNumber": "359",
        "_address": "18 Alliance Lane, Clayton VIC 3170, Australia",
        "_lightsOn": false,
        "_heatingCoolingOn": true,
        "_seatsUsed": 1,
        "_seatsTotal": 19,
        "_timeChecked": "2018-07-04T13:08:49.000000"
    }, {
        "_roomNumber": "311",
        "_address": "3 Chancellor's Walk, Clayton VIC 3170, Australia",
        "_lightsOn": false,
        "_heatingCoolingOn": false,
        "_seatsUsed": 2,
        "_seatsTotal": 13,
        "_timeChecked": "2018-01-09T11:26:14.000000"
    }, {
        "_roomNumber": "145",
        "_address": "2 Alliance Lane, Clayton VIC 3170, Australia",
        "_lightsOn": false,
        "_heatingCoolingOn": true,
        "_seatsUsed": 11,
        "_seatsTotal": 18,
        "_timeChecked": "2018-10-19T10:01:51.000000"
    }, {
        "_roomNumber": "238",
        "_address": "17 Research Way, Clayton VIC 3170, Australia",
        "_lightsOn": false,
        "_heatingCoolingOn": false,
        "_seatsUsed": 1,
        "_seatsTotal": 2,
        "_timeChecked": "2018-08-04T09:04:39.000000"
    }, {
        "_roomNumber": "371",
        "_address": "1 Exhibition Walk, Clayton VIC 3170, Australia",
        "_lightsOn": true,
        "_heatingCoolingOn": false,
        "_seatsUsed": 2,
        "_seatsTotal": 6,
        "_timeChecked": "2018-01-25T09:14:08.000000"
    }, {
        "_roomNumber": "227",
        "_address": "25 Exhibition Walk, Clayton VIC 3170, Australia",
        "_lightsOn": false,
        "_heatingCoolingOn": true,
        "_seatsUsed": 1,
        "_seatsTotal": 14,
        "_timeChecked": "2018-10-16T16:03:53.000000"
    }, {
        "_roomNumber": "369",
        "_address": "19 Research Way, Clayton VIC 3170, Australia",
        "_lightsOn": true,
        "_heatingCoolingOn": true,
        "_seatsUsed": 1,
        "_seatsTotal": 2,
        "_timeChecked": "2018-03-13T10:55:34.000000"
    }, {
        "_roomNumber": "274",
        "_address": "12 College Walk, Clayton VIC 3170, Australia",
        "_lightsOn": true,
        "_heatingCoolingOn": false,
        "_seatsUsed": 5,
        "_seatsTotal": 12,
        "_timeChecked": "2018-01-06T17:46:21.000000"
    }, {
        "_roomNumber": "316",
        "_address": "22 Chancellor's Walk, Clayton VIC 3170, Australia",
        "_lightsOn": true,
        "_heatingCoolingOn": true,
        "_seatsUsed": 2,
        "_seatsTotal": 5,
        "_timeChecked": "2018-07-16T15:31:47.000000"
    }, {
        "_roomNumber": "235",
        "_address": "20 Alliance Lane, Clayton VIC 3170, Australia",
        "_lightsOn": false,
        "_heatingCoolingOn": false,
        "_seatsUsed": 2,
        "_seatsTotal": 4,
        "_timeChecked": "2018-08-24T16:06:31.000000"
    }, {
        "_roomNumber": "252",
        "_address": "20 Research Way, Clayton VIC 3170, Australia",
        "_lightsOn": false,
        "_heatingCoolingOn": false,
        "_seatsUsed": 11,
        "_seatsTotal": 17,
        "_timeChecked": "2018-01-16T15:32:01.000000"
    }, {
        "_roomNumber": "343",
        "_address": "11 Innovation Walk, Clayton VIC 3170, Australia",
        "_lightsOn": true,
        "_heatingCoolingOn": true,
        "_seatsUsed": 0,
        "_seatsTotal": 1,
        "_timeChecked": "2018-08-07T15:47:18.000000"
    }, {
        "_roomNumber": "239",
        "_address": "16 Chancellor's Walk, Clayton VIC 3170, Australia",
        "_lightsOn": true,
        "_heatingCoolingOn": true,
        "_seatsUsed": 1,
        "_seatsTotal": 2,
        "_timeChecked": "2018-08-14T12:54:06.000000"
    }, {
        "_roomNumber": "265",
        "_address": "4 Innovation Walk, Clayton VIC 3170, Australia",
        "_lightsOn": false,
        "_heatingCoolingOn": true,
        "_seatsUsed": 4,
        "_seatsTotal": 5,
        "_timeChecked": "2018-09-09T10:53:40.000000"
    }, {
        "_roomNumber": "139",
        "_address": "14 Innovation Walk, Clayton VIC 3170, Australia",
        "_lightsOn": false,
        "_heatingCoolingOn": false,
        "_seatsUsed": 8,
        "_seatsTotal": 15,
        "_timeChecked": "2018-09-09T09:37:48.000000"
    }, {
        "_roomNumber": "246",
        "_address": "5 Alliance Lane, Clayton VIC 3170, Australia",
        "_lightsOn": false,
        "_heatingCoolingOn": true,
        "_seatsUsed": 2,
        "_seatsTotal": 4,
        "_timeChecked": "2018-04-13T11:38:34.000000"
    }, {
        "_roomNumber": "195",
        "_address": "6 Innovation Walk, Clayton VIC 3170, Australia",
        "_lightsOn": false,
        "_heatingCoolingOn": false,
        "_seatsUsed": 2,
        "_seatsTotal": 14,
        "_timeChecked": "2018-02-17T16:36:26.000000"
    }, {
        "_roomNumber": "136",
        "_address": "11 Exhibition Walk, Clayton VIC 3170, Australia",
        "_lightsOn": true,
        "_heatingCoolingOn": false,
        "_seatsUsed": 7,
        "_seatsTotal": 10,
        "_timeChecked": "2018-07-20T10:02:27.000000"
    }, {
        "_roomNumber": "123",
        "_address": "16 Innovation Walk, Clayton VIC 3170, Australia",
        "_lightsOn": true,
        "_heatingCoolingOn": true,
        "_seatsUsed": 1,
        "_seatsTotal": 1,
        "_timeChecked": "2018-09-22T16:13:31.000000"
    }, {
        "_roomNumber": "128",
        "_address": "12 Exhibition Walk, Clayton VIC 3170, Australia",
        "_lightsOn": true,
        "_heatingCoolingOn": false,
        "_seatsUsed": 0,
        "_seatsTotal": 5,
        "_timeChecked": "2018-11-13T16:26:20.000000"
    }, {
        "_roomNumber": "226",
        "_address": "17 Innovation Walk, Clayton VIC 3170, Australia",
        "_lightsOn": true,
        "_heatingCoolingOn": false,
        "_seatsUsed": 1,
        "_seatsTotal": 15,
        "_timeChecked": "2018-02-03T10:46:23.000000"
    }, {
        "_roomNumber": "363",
        "_address": "3 Exhibition Walk, Clayton VIC 3170, Australia",
        "_lightsOn": true,
        "_heatingCoolingOn": true,
        "_seatsUsed": 7,
        "_seatsTotal": 13,
        "_timeChecked": "2018-06-26T14:29:09.000000"
    }, {
        "_roomNumber": "363",
        "_address": "9 College Walk, Clayton VIC 3170, Australia",
        "_lightsOn": false,
        "_heatingCoolingOn": false,
        "_seatsUsed": 9,
        "_seatsTotal": 9,
        "_timeChecked": "2018-05-27T15:17:03.000000"
    }, {
        "_roomNumber": "144",
        "_address": "4 Alliance Lane, Clayton VIC 3170, Australia",
        "_lightsOn": true,
        "_heatingCoolingOn": false,
        "_seatsUsed": 4,
        "_seatsTotal": 9,
        "_timeChecked": "2018-09-27T08:25:51.000000"
    }, {
        "_roomNumber": "224",
        "_address": "23 College Walk, Clayton VIC 3170, Australia",
        "_lightsOn": false,
        "_heatingCoolingOn": false,
        "_seatsUsed": 1,
        "_seatsTotal": 12,
        "_timeChecked": "2018-02-08T09:05:13.000000"
    }, {
        "_roomNumber": "228",
        "_address": "4 College Walk, Clayton VIC 3170, Australia",
        "_lightsOn": true,
        "_heatingCoolingOn": false,
        "_seatsUsed": 2,
        "_seatsTotal": 9,
        "_timeChecked": "2018-08-03T17:44:41.000000"
    }, {
        "_roomNumber": "368",
        "_address": "4 Chancellor's Walk, Clayton VIC 3170, Australia",
        "_lightsOn": true,
        "_heatingCoolingOn": false,
        "_seatsUsed": 4,
        "_seatsTotal": 7,
        "_timeChecked": "2018-01-15T11:07:59.000000"
    }, {
        "_roomNumber": "241",
        "_address": "2 Exhibition Walk, Clayton VIC 3170, Australia",
        "_lightsOn": false,
        "_heatingCoolingOn": true,
        "_seatsUsed": 6,
        "_seatsTotal": 8,
        "_timeChecked": "2018-09-11T16:28:37.000000"
    }, {
        "_roomNumber": "174",
        "_address": "21 College Walk, Clayton VIC 3170, Australia",
        "_lightsOn": false,
        "_heatingCoolingOn": false,
        "_seatsUsed": 4,
        "_seatsTotal": 19,
        "_timeChecked": "2018-02-26T09:17:37.000000"
    }, {
        "_roomNumber": "167",
        "_address": "9 Chancellor's Walk, Clayton VIC 3170, Australia",
        "_lightsOn": false,
        "_heatingCoolingOn": false,
        "_seatsUsed": 7,
        "_seatsTotal": 14,
        "_timeChecked": "2018-01-28T11:30:42.000000"
    }, {
        "_roomNumber": "333",
        "_address": "11 Exhibition Walk, Clayton VIC 3170, Australia",
        "_lightsOn": true,
        "_heatingCoolingOn": true,
        "_seatsUsed": 0,
        "_seatsTotal": 0,
        "_timeChecked": "2018-12-02T18:30:18.000000"
    }, {
        "_roomNumber": "394",
        "_address": "18 Alliance Lane, Clayton VIC 3170, Australia",
        "_lightsOn": true,
        "_heatingCoolingOn": true,
        "_seatsUsed": 1,
        "_seatsTotal": 1,
        "_timeChecked": "2018-01-04T10:03:51.000000"
    }, {
        "_roomNumber": "243",
        "_address": "3 Research Way, Clayton VIC 3170, Australia",
        "_lightsOn": true,
        "_heatingCoolingOn": true,
        "_seatsUsed": 8,
        "_seatsTotal": 11,
        "_timeChecked": "2018-08-02T09:43:14.000000"
    }, {
        "_roomNumber": "312",
        "_address": "19 Innovation Walk, Clayton VIC 3170, Australia",
        "_lightsOn": false,
        "_heatingCoolingOn": true,
        "_seatsUsed": 4,
        "_seatsTotal": 5,
        "_timeChecked": "2018-06-20T17:32:00.000000"
    }, {
        "_roomNumber": "212",
        "_address": "1 College Walk, Clayton VIC 3170, Australia",
        "_lightsOn": false,
        "_heatingCoolingOn": true,
        "_seatsUsed": 14,
        "_seatsTotal": 14,
        "_timeChecked": "2018-02-19T14:55:49.000000"
    }, {
        "_roomNumber": "316",
        "_address": "9 College Walk, Clayton VIC 3170, Australia",
        "_lightsOn": false,
        "_heatingCoolingOn": true,
        "_seatsUsed": 4,
        "_seatsTotal": 9,
        "_timeChecked": "2018-05-15T15:29:34.000000"
    }, {
        "_roomNumber": "273",
        "_address": "1 Innovation Walk, Clayton VIC 3170, Australia",
        "_lightsOn": true,
        "_heatingCoolingOn": true,
        "_seatsUsed": 15,
        "_seatsTotal": 20,
        "_timeChecked": "2018-02-13T17:18:07.000000"
    }, {
        "_roomNumber": "268",
        "_address": "6 Chancellor's Walk, Clayton VIC 3170, Australia",
        "_lightsOn": false,
        "_heatingCoolingOn": false,
        "_seatsUsed": 5,
        "_seatsTotal": 13,
        "_timeChecked": "2018-03-09T10:29:56.000000"
    }, {
        "_roomNumber": "163",
        "_address": "25 Alliance Lane, Clayton VIC 3170, Australia",
        "_lightsOn": true,
        "_heatingCoolingOn": false,
        "_seatsUsed": 0,
        "_seatsTotal": 3,
        "_timeChecked": "2018-03-14T14:01:05.000000"
    }, {
        "_roomNumber": "354",
        "_address": "10 Innovation Walk, Clayton VIC 3170, Australia",
        "_lightsOn": false,
        "_heatingCoolingOn": true,
        "_seatsUsed": 10,
        "_seatsTotal": 14,
        "_timeChecked": "2018-02-15T14:49:08.000000"
    }, {
        "_roomNumber": "237",
        "_address": "6 Exhibition Walk, Clayton VIC 3170, Australia",
        "_lightsOn": false,
        "_heatingCoolingOn": false,
        "_seatsUsed": 1,
        "_seatsTotal": 8,
        "_timeChecked": "2018-03-15T08:33:38.000000"
    }, {
        "_roomNumber": "227",
        "_address": "6 College Walk, Clayton VIC 3170, Australia",
        "_lightsOn": false,
        "_heatingCoolingOn": false,
        "_seatsUsed": 0,
        "_seatsTotal": 3,
        "_timeChecked": "2018-12-12T11:57:54.000000"
    }, {
        "_roomNumber": "141",
        "_address": "2 Innovation Walk, Clayton VIC 3170, Australia",
        "_lightsOn": true,
        "_heatingCoolingOn": true,
        "_seatsUsed": 9,
        "_seatsTotal": 14,
        "_timeChecked": "2018-11-02T09:06:35.000000"
    }, {
        "_roomNumber": "221",
        "_address": "20 Innovation Walk, Clayton VIC 3170, Australia",
        "_lightsOn": true,
        "_heatingCoolingOn": true,
        "_seatsUsed": 6,
        "_seatsTotal": 6,
        "_timeChecked": "2018-03-24T09:17:37.000000"
    }, {
        "_roomNumber": "394",
        "_address": "6 Research Way, Clayton VIC 3170, Australia",
        "_lightsOn": false,
        "_heatingCoolingOn": true,
        "_seatsUsed": 10,
        "_seatsTotal": 11,
        "_timeChecked": "2018-12-05T14:48:15.000000"
    }, {
        "_roomNumber": "332",
        "_address": "15 Alliance Lane, Clayton VIC 3170, Australia",
        "_lightsOn": false,
        "_heatingCoolingOn": true,
        "_seatsUsed": 6,
        "_seatsTotal": 6,
        "_timeChecked": "2018-01-01T08:15:46.000000"
    }, {
        "_roomNumber": "267",
        "_address": "18 Research Way, Clayton VIC 3170, Australia",
        "_lightsOn": true,
        "_heatingCoolingOn": true,
        "_seatsUsed": 8,
        "_seatsTotal": 13,
        "_timeChecked": "2018-09-03T09:51:06.000000"
    }, {
        "_roomNumber": "388",
        "_address": "19 Innovation Walk, Clayton VIC 3170, Australia",
        "_lightsOn": false,
        "_heatingCoolingOn": false,
        "_seatsUsed": 1,
        "_seatsTotal": 1,
        "_timeChecked": "2018-02-15T08:52:15.000000"
    }, {
        "_roomNumber": "146",
        "_address": "9 Alliance Lane, Clayton VIC 3170, Australia",
        "_lightsOn": true,
        "_heatingCoolingOn": true,
        "_seatsUsed": 1,
        "_seatsTotal": 1,
        "_timeChecked": "2018-01-26T12:42:26.000000"
    }, {
        "_roomNumber": "132",
        "_address": "5 Alliance Lane, Clayton VIC 3170, Australia",
        "_lightsOn": false,
        "_heatingCoolingOn": false,
        "_seatsUsed": 12,
        "_seatsTotal": 19,
        "_timeChecked": "2018-06-14T08:20:45.000000"
    }, {
        "_roomNumber": "316",
        "_address": "17 Exhibition Walk, Clayton VIC 3170, Australia",
        "_lightsOn": false,
        "_heatingCoolingOn": false,
        "_seatsUsed": 10,
        "_seatsTotal": 14,
        "_timeChecked": "2018-04-21T08:35:42.000000"
    }, {
        "_roomNumber": "344",
        "_address": "8 College Walk, Clayton VIC 3170, Australia",
        "_lightsOn": false,
        "_heatingCoolingOn": false,
        "_seatsUsed": 0,
        "_seatsTotal": 2,
        "_timeChecked": "2018-11-02T15:02:23.000000"
    }, {
        "_roomNumber": "282",
        "_address": "20 Chancellor's Walk, Clayton VIC 3170, Australia",
        "_lightsOn": true,
        "_heatingCoolingOn": false,
        "_seatsUsed": 2,
        "_seatsTotal": 6,
        "_timeChecked": "2018-05-12T18:44:50.000000"
    }, {
        "_roomNumber": "344",
        "_address": "23 Innovation Walk, Clayton VIC 3170, Australia",
        "_lightsOn": false,
        "_heatingCoolingOn": true,
        "_seatsUsed": 8,
        "_seatsTotal": 20,
        "_timeChecked": "2018-02-22T16:28:09.000000"
    }, {
        "_roomNumber": "356",
        "_address": "21 Research Way, Clayton VIC 3170, Australia",
        "_lightsOn": false,
        "_heatingCoolingOn": true,
        "_seatsUsed": 11,
        "_seatsTotal": 12,
        "_timeChecked": "2018-12-05T08:34:16.000000"
    }, {
        "_roomNumber": "254",
        "_address": "22 Innovation Walk, Clayton VIC 3170, Australia",
        "_lightsOn": false,
        "_heatingCoolingOn": false,
        "_seatsUsed": 2,
        "_seatsTotal": 8,
        "_timeChecked": "2018-04-20T08:20:44.000000"
    }, {
        "_roomNumber": "298",
        "_address": "15 Innovation Walk, Clayton VIC 3170, Australia",
        "_lightsOn": false,
        "_heatingCoolingOn": false,
        "_seatsUsed": 1,
        "_seatsTotal": 10,
        "_timeChecked": "2018-10-03T18:05:32.000000"
    }, {
        "_roomNumber": "288",
        "_address": "19 College Walk, Clayton VIC 3170, Australia",
        "_lightsOn": false,
        "_heatingCoolingOn": false,
        "_seatsUsed": 3,
        "_seatsTotal": 3,
        "_timeChecked": "2018-02-16T18:25:32.000000"
    }, {
        "_roomNumber": "251",
        "_address": "8 College Walk, Clayton VIC 3170, Australia",
        "_lightsOn": false,
        "_heatingCoolingOn": true,
        "_seatsUsed": 5,
        "_seatsTotal": 12,
        "_timeChecked": "2018-10-04T15:49:33.000000"
    }, {
        "_roomNumber": "198",
        "_address": "25 Chancellor's Walk, Clayton VIC 3170, Australia",
        "_lightsOn": true,
        "_heatingCoolingOn": true,
        "_seatsUsed": 9,
        "_seatsTotal": 9,
        "_timeChecked": "2018-08-10T18:38:33.000000"
    }, {
        "_roomNumber": "298",
        "_address": "18 Innovation Walk, Clayton VIC 3170, Australia",
        "_lightsOn": false,
        "_heatingCoolingOn": true,
        "_seatsUsed": 0,
        "_seatsTotal": 5,
        "_timeChecked": "2018-09-03T16:39:17.000000"
    }, {
        "_roomNumber": "284",
        "_address": "7 Research Way, Clayton VIC 3170, Australia",
        "_lightsOn": false,
        "_heatingCoolingOn": false,
        "_seatsUsed": 11,
        "_seatsTotal": 13,
        "_timeChecked": "2018-04-09T12:11:19.000000"
    }, {
        "_roomNumber": "396",
        "_address": "25 Exhibition Walk, Clayton VIC 3170, Australia",
        "_lightsOn": true,
        "_heatingCoolingOn": false,
        "_seatsUsed": 0,
        "_seatsTotal": 16,
        "_timeChecked": "2018-03-09T16:53:42.000000"
    }, {
        "_roomNumber": "198",
        "_address": "24 Innovation Walk, Clayton VIC 3170, Australia",
        "_lightsOn": false,
        "_heatingCoolingOn": false,
        "_seatsUsed": 0,
        "_seatsTotal": 1,
        "_timeChecked": "2018-10-09T08:26:27.000000"
    }, {
        "_roomNumber": "154",
        "_address": "12 College Walk, Clayton VIC 3170, Australia",
        "_lightsOn": true,
        "_heatingCoolingOn": false,
        "_seatsUsed": 1,
        "_seatsTotal": 1,
        "_timeChecked": "2018-08-01T17:18:09.000000"
    }, {
        "_roomNumber": "379",
        "_address": "21 Alliance Lane, Clayton VIC 3170, Australia",
        "_lightsOn": true,
        "_heatingCoolingOn": false,
        "_seatsUsed": 1,
        "_seatsTotal": 11,
        "_timeChecked": "2018-12-22T10:33:24.000000"
    }, {
        "_roomNumber": "199",
        "_address": "10 College Walk, Clayton VIC 3170, Australia",
        "_lightsOn": true,
        "_heatingCoolingOn": false,
        "_seatsUsed": 3,
        "_seatsTotal": 16,
        "_timeChecked": "2018-01-19T13:33:51.000000"
    }, {
        "_roomNumber": "341",
        "_address": "15 Chancellor's Walk, Clayton VIC 3170, Australia",
        "_lightsOn": false,
        "_heatingCoolingOn": false,
        "_seatsUsed": 18,
        "_seatsTotal": 19,
        "_timeChecked": "2018-08-24T17:00:12.000000"
    }, {
        "_roomNumber": "232",
        "_address": "3 Chancellor's Walk, Clayton VIC 3170, Australia",
        "_lightsOn": false,
        "_heatingCoolingOn": true,
        "_seatsUsed": 12,
        "_seatsTotal": 16,
        "_timeChecked": "2018-02-27T14:38:47.000000"
    }, {
        "_roomNumber": "147",
        "_address": "1 College Walk, Clayton VIC 3170, Australia",
        "_lightsOn": false,
        "_heatingCoolingOn": false,
        "_seatsUsed": 1,
        "_seatsTotal": 2,
        "_timeChecked": "2018-11-12T12:51:15.000000"
    }, {
        "_roomNumber": "252",
        "_address": "14 Innovation Walk, Clayton VIC 3170, Australia",
        "_lightsOn": false,
        "_heatingCoolingOn": true,
        "_seatsUsed": 2,
        "_seatsTotal": 6,
        "_timeChecked": "2018-01-01T10:10:42.000000"
    }, {
        "_roomNumber": "374",
        "_address": "11 Research Way, Clayton VIC 3170, Australia",
        "_lightsOn": false,
        "_heatingCoolingOn": true,
        "_seatsUsed": 13,
        "_seatsTotal": 18,
        "_timeChecked": "2018-06-27T15:21:18.000000"
    }, {
        "_roomNumber": "344",
        "_address": "12 Research Way, Clayton VIC 3170, Australia",
        "_lightsOn": false,
        "_heatingCoolingOn": true,
        "_seatsUsed": 6,
        "_seatsTotal": 6,
        "_timeChecked": "2018-09-01T15:38:15.000000"
    }, {
        "_roomNumber": "224",
        "_address": "5 Alliance Lane, Clayton VIC 3170, Australia",
        "_lightsOn": false,
        "_heatingCoolingOn": true,
        "_seatsUsed": 0,
        "_seatsTotal": 13,
        "_timeChecked": "2018-01-19T18:34:19.000000"
    }, {
        "_roomNumber": "388",
        "_address": "11 Chancellor's Walk, Clayton VIC 3170, Australia",
        "_lightsOn": true,
        "_heatingCoolingOn": true,
        "_seatsUsed": 0,
        "_seatsTotal": 0,
        "_timeChecked": "2018-06-10T12:28:04.000000"
    }, {
        "_roomNumber": "329",
        "_address": "18 Exhibition Walk, Clayton VIC 3170, Australia",
        "_lightsOn": false,
        "_heatingCoolingOn": false,
        "_seatsUsed": 3,
        "_seatsTotal": 4,
        "_timeChecked": "2018-08-08T18:44:51.000000"
    }, {
        "_roomNumber": "367",
        "_address": "5 Chancellor's Walk, Clayton VIC 3170, Australia",
        "_lightsOn": true,
        "_heatingCoolingOn": false,
        "_seatsUsed": 11,
        "_seatsTotal": 11,
        "_timeChecked": "2018-10-07T13:05:00.000000"
    }, {
        "_roomNumber": "138",
        "_address": "19 Research Way, Clayton VIC 3170, Australia",
        "_lightsOn": true,
        "_heatingCoolingOn": true,
        "_seatsUsed": 1,
        "_seatsTotal": 18,
        "_timeChecked": "2018-05-26T11:11:57.000000"
    }, {
        "_roomNumber": "258",
        "_address": "16 Research Way, Clayton VIC 3170, Australia",
        "_lightsOn": false,
        "_heatingCoolingOn": false,
        "_seatsUsed": 4,
        "_seatsTotal": 4,
        "_timeChecked": "2018-08-18T16:59:24.000000"
    }, {
        "_roomNumber": "342",
        "_address": "7 Chancellor's Walk, Clayton VIC 3170, Australia",
        "_lightsOn": false,
        "_heatingCoolingOn": false,
        "_seatsUsed": 5,
        "_seatsTotal": 7,
        "_timeChecked": "2018-06-03T11:20:57.000000"
    }, {
        "_roomNumber": "179",
        "_address": "4 Chancellor's Walk, Clayton VIC 3170, Australia",
        "_lightsOn": true,
        "_heatingCoolingOn": true,
        "_seatsUsed": 5,
        "_seatsTotal": 6,
        "_timeChecked": "2018-12-06T13:37:20.000000"
    }, {
        "_roomNumber": "232",
        "_address": "17 College Walk, Clayton VIC 3170, Australia",
        "_lightsOn": false,
        "_heatingCoolingOn": true,
        "_seatsUsed": 1,
        "_seatsTotal": 6,
        "_timeChecked": "2018-03-28T15:12:25.000000"
    }, {
        "_roomNumber": "146",
        "_address": "2 Alliance Lane, Clayton VIC 3170, Australia",
        "_lightsOn": false,
        "_heatingCoolingOn": false,
        "_seatsUsed": 3,
        "_seatsTotal": 4,
        "_timeChecked": "2018-05-13T09:28:13.000000"
    }, {
        "_roomNumber": "187",
        "_address": "12 Research Way, Clayton VIC 3170, Australia",
        "_lightsOn": true,
        "_heatingCoolingOn": true,
        "_seatsUsed": 1,
        "_seatsTotal": 20,
        "_timeChecked": "2018-07-12T10:25:44.000000"
    }, {
        "_roomNumber": "116",
        "_address": "19 Alliance Lane, Clayton VIC 3170, Australia",
        "_lightsOn": true,
        "_heatingCoolingOn": false,
        "_seatsUsed": 0,
        "_seatsTotal": 15,
        "_timeChecked": "2018-09-20T14:24:46.000000"
    }, {
        "_roomNumber": "183",
        "_address": "21 Research Way, Clayton VIC 3170, Australia",
        "_lightsOn": true,
        "_heatingCoolingOn": true,
        "_seatsUsed": 0,
        "_seatsTotal": 0,
        "_timeChecked": "2018-07-11T18:00:13.000000"
    }, {
        "_roomNumber": "315",
        "_address": "22 Exhibition Walk, Clayton VIC 3170, Australia",
        "_lightsOn": false,
        "_heatingCoolingOn": false,
        "_seatsUsed": 4,
        "_seatsTotal": 5,
        "_timeChecked": "2018-04-17T17:34:22.000000"
    }, {
        "_roomNumber": "189",
        "_address": "10 Research Way, Clayton VIC 3170, Australia",
        "_lightsOn": false,
        "_heatingCoolingOn": false,
        "_seatsUsed": 2,
        "_seatsTotal": 17,
        "_timeChecked": "2018-12-17T08:22:08.000000"
    }, {
        "_roomNumber": "386",
        "_address": "8 Alliance Lane, Clayton VIC 3170, Australia",
        "_lightsOn": false,
        "_heatingCoolingOn": true,
        "_seatsUsed": 5,
        "_seatsTotal": 8,
        "_timeChecked": "2018-12-26T09:32:25.000000"
    }, {
        "_roomNumber": "398",
        "_address": "11 Alliance Lane, Clayton VIC 3170, Australia",
        "_lightsOn": false,
        "_heatingCoolingOn": true,
        "_seatsUsed": 12,
        "_seatsTotal": 14,
        "_timeChecked": "2018-02-27T08:20:48.000000"
    }, {
        "_roomNumber": "149",
        "_address": "4 Exhibition Walk, Clayton VIC 3170, Australia",
        "_lightsOn": false,
        "_heatingCoolingOn": true,
        "_seatsUsed": 0,
        "_seatsTotal": 0,
        "_timeChecked": "2018-05-08T12:34:53.000000"
    }, {
        "_roomNumber": "219",
        "_address": "5 Chancellor's Walk, Clayton VIC 3170, Australia",
        "_lightsOn": false,
        "_heatingCoolingOn": true,
        "_seatsUsed": 1,
        "_seatsTotal": 9,
        "_timeChecked": "2018-10-26T15:41:25.000000"
    }, {
        "_roomNumber": "311",
        "_address": "12 College Walk, Clayton VIC 3170, Australia",
        "_lightsOn": false,
        "_heatingCoolingOn": false,
        "_seatsUsed": 6,
        "_seatsTotal": 14,
        "_timeChecked": "2018-07-23T13:51:26.000000"
    }, {
        "_roomNumber": "191",
        "_address": "8 Research Way, Clayton VIC 3170, Australia",
        "_lightsOn": true,
        "_heatingCoolingOn": false,
        "_seatsUsed": 7,
        "_seatsTotal": 15,
        "_timeChecked": "2018-08-10T10:59:51.000000"
    }, {
        "_roomNumber": "156",
        "_address": "13 Alliance Lane, Clayton VIC 3170, Australia",
        "_lightsOn": true,
        "_heatingCoolingOn": true,
        "_seatsUsed": 10,
        "_seatsTotal": 11,
        "_timeChecked": "2018-07-14T14:19:35.000000"
    }, {
        "_roomNumber": "213",
        "_address": "25 College Walk, Clayton VIC 3170, Australia",
        "_lightsOn": false,
        "_heatingCoolingOn": true,
        "_seatsUsed": 17,
        "_seatsTotal": 19,
        "_timeChecked": "2018-10-06T09:03:20.000000"
    }, {
        "_roomNumber": "287",
        "_address": "7 Alliance Lane, Clayton VIC 3170, Australia",
        "_lightsOn": false,
        "_heatingCoolingOn": false,
        "_seatsUsed": 4,
        "_seatsTotal": 13,
        "_timeChecked": "2018-09-06T14:03:14.000000"
    }, {
        "_roomNumber": "249",
        "_address": "8 Exhibition Walk, Clayton VIC 3170, Australia",
        "_lightsOn": true,
        "_heatingCoolingOn": true,
        "_seatsUsed": 19,
        "_seatsTotal": 20,
        "_timeChecked": "2018-02-26T17:03:39.000000"
    }, {
        "_roomNumber": "169",
        "_address": "3 Innovation Walk, Clayton VIC 3170, Australia",
        "_lightsOn": true,
        "_heatingCoolingOn": true,
        "_seatsUsed": 4,
        "_seatsTotal": 4,
        "_timeChecked": "2018-06-25T11:58:46.000000"
    }, {
        "_roomNumber": "353",
        "_address": "9 Innovation Walk, Clayton VIC 3170, Australia",
        "_lightsOn": false,
        "_heatingCoolingOn": false,
        "_seatsUsed": 5,
        "_seatsTotal": 13,
        "_timeChecked": "2018-02-28T17:07:42.000000"
    }, {
        "_roomNumber": "193",
        "_address": "24 Research Way, Clayton VIC 3170, Australia",
        "_lightsOn": false,
        "_heatingCoolingOn": false,
        "_seatsUsed": 7,
        "_seatsTotal": 19,
        "_timeChecked": "2018-09-11T11:37:18.000000"
    }, {
        "_roomNumber": "298",
        "_address": "3 Research Way, Clayton VIC 3170, Australia",
        "_lightsOn": true,
        "_heatingCoolingOn": false,
        "_seatsUsed": 15,
        "_seatsTotal": 19,
        "_timeChecked": "2018-01-04T16:08:45.000000"
    }, {
        "_roomNumber": "199",
        "_address": "2 Chancellor's Walk, Clayton VIC 3170, Australia",
        "_lightsOn": false,
        "_heatingCoolingOn": false,
        "_seatsUsed": 0,
        "_seatsTotal": 0,
        "_timeChecked": "2018-04-09T16:28:16.000000"
    }, {
        "_roomNumber": "166",
        "_address": "8 Exhibition Walk, Clayton VIC 3170, Australia",
        "_lightsOn": false,
        "_heatingCoolingOn": false,
        "_seatsUsed": 1,
        "_seatsTotal": 1,
        "_timeChecked": "2018-04-24T18:01:52.000000"
    }, {
        "_roomNumber": "167",
        "_address": "19 College Walk, Clayton VIC 3170, Australia",
        "_lightsOn": true,
        "_heatingCoolingOn": false,
        "_seatsUsed": 1,
        "_seatsTotal": 1,
        "_timeChecked": "2018-08-08T18:03:41.000000"
    }, {
        "_roomNumber": "319",
        "_address": "4 Exhibition Walk, Clayton VIC 3170, Australia",
        "_lightsOn": true,
        "_heatingCoolingOn": false,
        "_seatsUsed": 11,
        "_seatsTotal": 20,
        "_timeChecked": "2018-07-20T17:37:41.000000"
    }, {
        "_roomNumber": "393",
        "_address": "14 Innovation Walk, Clayton VIC 3170, Australia",
        "_lightsOn": true,
        "_heatingCoolingOn": true,
        "_seatsUsed": 8,
        "_seatsTotal": 18,
        "_timeChecked": "2018-10-08T11:11:33.000000"
    }, {
        "_roomNumber": "212",
        "_address": "15 Exhibition Walk, Clayton VIC 3170, Australia",
        "_lightsOn": true,
        "_heatingCoolingOn": false,
        "_seatsUsed": 3,
        "_seatsTotal": 6,
        "_timeChecked": "2018-07-07T10:50:53.000000"
    }, {
        "_roomNumber": "326",
        "_address": "8 College Walk, Clayton VIC 3170, Australia",
        "_lightsOn": true,
        "_heatingCoolingOn": false,
        "_seatsUsed": 7,
        "_seatsTotal": 17,
        "_timeChecked": "2018-09-23T15:28:40.000000"
    }, {
        "_roomNumber": "187",
        "_address": "13 Exhibition Walk, Clayton VIC 3170, Australia",
        "_lightsOn": true,
        "_heatingCoolingOn": false,
        "_seatsUsed": 7,
        "_seatsTotal": 11,
        "_timeChecked": "2018-09-28T11:09:16.000000"
    }, {
        "_roomNumber": "238",
        "_address": "6 Research Way, Clayton VIC 3170, Australia",
        "_lightsOn": false,
        "_heatingCoolingOn": false,
        "_seatsUsed": 5,
        "_seatsTotal": 16,
        "_timeChecked": "2018-10-06T11:06:41.000000"
    }, {
        "_roomNumber": "246",
        "_address": "16 Chancellor's Walk, Clayton VIC 3170, Australia",
        "_lightsOn": false,
        "_heatingCoolingOn": true,
        "_seatsUsed": 9,
        "_seatsTotal": 13,
        "_timeChecked": "2018-05-12T17:42:49.000000"
    }, {
        "_roomNumber": "174",
        "_address": "18 College Walk, Clayton VIC 3170, Australia",
        "_lightsOn": true,
        "_heatingCoolingOn": false,
        "_seatsUsed": 0,
        "_seatsTotal": 1,
        "_timeChecked": "2018-09-21T09:45:53.000000"
    }, {
        "_roomNumber": "171",
        "_address": "3 College Walk, Clayton VIC 3170, Australia",
        "_lightsOn": false,
        "_heatingCoolingOn": true,
        "_seatsUsed": 1,
        "_seatsTotal": 1,
        "_timeChecked": "2018-04-25T18:45:36.000000"
    }, {
        "_roomNumber": "335",
        "_address": "13 Chancellor's Walk, Clayton VIC 3170, Australia",
        "_lightsOn": true,
        "_heatingCoolingOn": false,
        "_seatsUsed": 13,
        "_seatsTotal": 20,
        "_timeChecked": "2018-07-08T10:11:51.000000"
    }, {
        "_roomNumber": "187",
        "_address": "16 Alliance Lane, Clayton VIC 3170, Australia",
        "_lightsOn": false,
        "_heatingCoolingOn": true,
        "_seatsUsed": 11,
        "_seatsTotal": 19,
        "_timeChecked": "2018-08-24T17:01:33.000000"
    }, {
        "_roomNumber": "161",
        "_address": "5 Exhibition Walk, Clayton VIC 3170, Australia",
        "_lightsOn": false,
        "_heatingCoolingOn": true,
        "_seatsUsed": 5,
        "_seatsTotal": 5,
        "_timeChecked": "2018-11-09T15:16:30.000000"
    }, {
        "_roomNumber": "294",
        "_address": "13 Innovation Walk, Clayton VIC 3170, Australia",
        "_lightsOn": false,
        "_heatingCoolingOn": true,
        "_seatsUsed": 0,
        "_seatsTotal": 8,
        "_timeChecked": "2018-03-22T12:25:03.000000"
    }, {
        "_roomNumber": "192",
        "_address": "22 Research Way, Clayton VIC 3170, Australia",
        "_lightsOn": true,
        "_heatingCoolingOn": true,
        "_seatsUsed": 9,
        "_seatsTotal": 12,
        "_timeChecked": "2018-05-18T12:14:33.000000"
    }, {
        "_roomNumber": "296",
        "_address": "13 Chancellor's Walk, Clayton VIC 3170, Australia",
        "_lightsOn": false,
        "_heatingCoolingOn": false,
        "_seatsUsed": 1,
        "_seatsTotal": 14,
        "_timeChecked": "2018-11-08T11:36:24.000000"
    }, {
        "_roomNumber": "286",
        "_address": "18 Research Way, Clayton VIC 3170, Australia",
        "_lightsOn": true,
        "_heatingCoolingOn": false,
        "_seatsUsed": 8,
        "_seatsTotal": 13,
        "_timeChecked": "2018-08-12T10:04:22.000000"
    }, {
        "_roomNumber": "337",
        "_address": "10 Exhibition Walk, Clayton VIC 3170, Australia",
        "_lightsOn": false,
        "_heatingCoolingOn": false,
        "_seatsUsed": 2,
        "_seatsTotal": 18,
        "_timeChecked": "2018-03-10T17:53:47.000000"
    }, {
        "_roomNumber": "116",
        "_address": "21 College Walk, Clayton VIC 3170, Australia",
        "_lightsOn": true,
        "_heatingCoolingOn": false,
        "_seatsUsed": 4,
        "_seatsTotal": 10,
        "_timeChecked": "2018-05-10T14:42:05.000000"
    }, {
        "_roomNumber": "345",
        "_address": "5 Alliance Lane, Clayton VIC 3170, Australia",
        "_lightsOn": true,
        "_heatingCoolingOn": true,
        "_seatsUsed": 10,
        "_seatsTotal": 17,
        "_timeChecked": "2018-02-28T09:29:48.000000"
    }, {
        "_roomNumber": "255",
        "_address": "25 Innovation Walk, Clayton VIC 3170, Australia",
        "_lightsOn": true,
        "_heatingCoolingOn": false,
        "_seatsUsed": 7,
        "_seatsTotal": 7,
        "_timeChecked": "2018-02-13T13:47:35.000000"
    }, {
        "_roomNumber": "385",
        "_address": "19 College Walk, Clayton VIC 3170, Australia",
        "_lightsOn": false,
        "_heatingCoolingOn": false,
        "_seatsUsed": 1,
        "_seatsTotal": 8,
        "_timeChecked": "2018-10-16T17:24:53.000000"
    }, {
        "_roomNumber": "355",
        "_address": "2 Research Way, Clayton VIC 3170, Australia",
        "_lightsOn": false,
        "_heatingCoolingOn": false,
        "_seatsUsed": 4,
        "_seatsTotal": 14,
        "_timeChecked": "2018-08-01T09:30:58.000000"
    }, {
        "_roomNumber": "178",
        "_address": "20 Chancellor's Walk, Clayton VIC 3170, Australia",
        "_lightsOn": true,
        "_heatingCoolingOn": true,
        "_seatsUsed": 10,
        "_seatsTotal": 10,
        "_timeChecked": "2018-08-16T15:54:30.000000"
    }, {
        "_roomNumber": "166",
        "_address": "15 Innovation Walk, Clayton VIC 3170, Australia",
        "_lightsOn": false,
        "_heatingCoolingOn": false,
        "_seatsUsed": 7,
        "_seatsTotal": 8,
        "_timeChecked": "2018-10-17T08:31:12.000000"
    }, {
        "_roomNumber": "319",
        "_address": "8 Research Way, Clayton VIC 3170, Australia",
        "_lightsOn": true,
        "_heatingCoolingOn": false,
        "_seatsUsed": 9,
        "_seatsTotal": 10,
        "_timeChecked": "2018-01-20T09:01:09.000000"
    }, {
        "_roomNumber": "246",
        "_address": "25 Research Way, Clayton VIC 3170, Australia",
        "_lightsOn": true,
        "_heatingCoolingOn": false,
        "_seatsUsed": 0,
        "_seatsTotal": 1,
        "_timeChecked": "2018-02-23T15:03:27.000000"
    }, {
        "_roomNumber": "123",
        "_address": "9 Research Way, Clayton VIC 3170, Australia",
        "_lightsOn": true,
        "_heatingCoolingOn": true,
        "_seatsUsed": 4,
        "_seatsTotal": 4,
        "_timeChecked": "2018-04-19T11:16:35.000000"
    }, {
        "_roomNumber": "242",
        "_address": "4 Chancellor's Walk, Clayton VIC 3170, Australia",
        "_lightsOn": true,
        "_heatingCoolingOn": false,
        "_seatsUsed": 16,
        "_seatsTotal": 16,
        "_timeChecked": "2018-07-20T11:55:44.000000"
    }, {
        "_roomNumber": "355",
        "_address": "4 Research Way, Clayton VIC 3170, Australia",
        "_lightsOn": false,
        "_heatingCoolingOn": true,
        "_seatsUsed": 0,
        "_seatsTotal": 1,
        "_timeChecked": "2018-09-28T15:59:43.000000"
    }, {
        "_roomNumber": "394",
        "_address": "17 Research Way, Clayton VIC 3170, Australia",
        "_lightsOn": true,
        "_heatingCoolingOn": true,
        "_seatsUsed": 3,
        "_seatsTotal": 16,
        "_timeChecked": "2018-03-10T11:56:29.000000"
    }, {
        "_roomNumber": "191",
        "_address": "22 Exhibition Walk, Clayton VIC 3170, Australia",
        "_lightsOn": false,
        "_heatingCoolingOn": false,
        "_seatsUsed": 3,
        "_seatsTotal": 4,
        "_timeChecked": "2018-04-20T16:03:10.000000"
    }, {
        "_roomNumber": "297",
        "_address": "18 Chancellor's Walk, Clayton VIC 3170, Australia",
        "_lightsOn": false,
        "_heatingCoolingOn": false,
        "_seatsUsed": 9,
        "_seatsTotal": 17,
        "_timeChecked": "2018-11-24T12:12:56.000000"
    }, {
        "_roomNumber": "177",
        "_address": "13 Alliance Lane, Clayton VIC 3170, Australia",
        "_lightsOn": true,
        "_heatingCoolingOn": true,
        "_seatsUsed": 3,
        "_seatsTotal": 14,
        "_timeChecked": "2018-02-08T14:37:31.000000"
    }, {
        "_roomNumber": "276",
        "_address": "21 Chancellor's Walk, Clayton VIC 3170, Australia",
        "_lightsOn": true,
        "_heatingCoolingOn": false,
        "_seatsUsed": 2,
        "_seatsTotal": 7,
        "_timeChecked": "2018-12-04T16:22:00.000000"
    }, {
        "_roomNumber": "363",
        "_address": "11 Exhibition Walk, Clayton VIC 3170, Australia",
        "_lightsOn": true,
        "_heatingCoolingOn": false,
        "_seatsUsed": 4,
        "_seatsTotal": 5,
        "_timeChecked": "2018-01-14T12:34:08.000000"
    }, {
        "_roomNumber": "348",
        "_address": "10 Exhibition Walk, Clayton VIC 3170, Australia",
        "_lightsOn": true,
        "_heatingCoolingOn": false,
        "_seatsUsed": 4,
        "_seatsTotal": 12,
        "_timeChecked": "2018-12-16T13:07:56.000000"
    }, {
        "_roomNumber": "269",
        "_address": "18 Alliance Lane, Clayton VIC 3170, Australia",
        "_lightsOn": true,
        "_heatingCoolingOn": false,
        "_seatsUsed": 1,
        "_seatsTotal": 3,
        "_timeChecked": "2018-09-04T16:13:47.000000"
    }, {
        "_roomNumber": "317",
        "_address": "5 Alliance Lane, Clayton VIC 3170, Australia",
        "_lightsOn": true,
        "_heatingCoolingOn": true,
        "_seatsUsed": 9,
        "_seatsTotal": 17,
        "_timeChecked": "2018-03-26T14:46:47.000000"
    }, {
        "_roomNumber": "292",
        "_address": "1 Chancellor's Walk, Clayton VIC 3170, Australia",
        "_lightsOn": false,
        "_heatingCoolingOn": false,
        "_seatsUsed": 0,
        "_seatsTotal": 8,
        "_timeChecked": "2018-01-05T10:07:23.000000"
    }, {
        "_roomNumber": "133",
        "_address": "6 Alliance Lane, Clayton VIC 3170, Australia",
        "_lightsOn": false,
        "_heatingCoolingOn": false,
        "_seatsUsed": 1,
        "_seatsTotal": 5,
        "_timeChecked": "2018-04-08T08:36:33.000000"
    }, {
        "_roomNumber": "141",
        "_address": "5 Chancellor's Walk, Clayton VIC 3170, Australia",
        "_lightsOn": false,
        "_heatingCoolingOn": true,
        "_seatsUsed": 17,
        "_seatsTotal": 17,
        "_timeChecked": "2018-01-19T14:05:47.000000"
    }, {
        "_roomNumber": "339",
        "_address": "2 College Walk, Clayton VIC 3170, Australia",
        "_lightsOn": false,
        "_heatingCoolingOn": true,
        "_seatsUsed": 8,
        "_seatsTotal": 13,
        "_timeChecked": "2018-08-15T16:51:08.000000"
    }, {
        "_roomNumber": "174",
        "_address": "22 College Walk, Clayton VIC 3170, Australia",
        "_lightsOn": false,
        "_heatingCoolingOn": false,
        "_seatsUsed": 4,
        "_seatsTotal": 6,
        "_timeChecked": "2018-07-22T18:37:47.000000"
    }, {
        "_roomNumber": "174",
        "_address": "24 Research Way, Clayton VIC 3170, Australia",
        "_lightsOn": false,
        "_heatingCoolingOn": true,
        "_seatsUsed": 6,
        "_seatsTotal": 7,
        "_timeChecked": "2018-11-02T08:59:33.000000"
    }, {
        "_roomNumber": "163",
        "_address": "1 Chancellor's Walk, Clayton VIC 3170, Australia",
        "_lightsOn": true,
        "_heatingCoolingOn": false,
        "_seatsUsed": 3,
        "_seatsTotal": 14,
        "_timeChecked": "2018-04-22T08:04:38.000000"
    }, {
        "_roomNumber": "246",
        "_address": "5 Research Way, Clayton VIC 3170, Australia",
        "_lightsOn": false,
        "_heatingCoolingOn": false,
        "_seatsUsed": 0,
        "_seatsTotal": 8,
        "_timeChecked": "2018-07-12T10:16:13.000000"
    }, {
        "_roomNumber": "376",
        "_address": "14 Exhibition Walk, Clayton VIC 3170, Australia",
        "_lightsOn": false,
        "_heatingCoolingOn": false,
        "_seatsUsed": 10,
        "_seatsTotal": 12,
        "_timeChecked": "2018-11-19T09:31:42.000000"
    }, {
        "_roomNumber": "189",
        "_address": "18 Chancellor's Walk, Clayton VIC 3170, Australia",
        "_lightsOn": true,
        "_heatingCoolingOn": false,
        "_seatsUsed": 0,
        "_seatsTotal": 2,
        "_timeChecked": "2018-02-17T14:44:31.000000"
    }, {
        "_roomNumber": "385",
        "_address": "14 Alliance Lane, Clayton VIC 3170, Australia",
        "_lightsOn": false,
        "_heatingCoolingOn": false,
        "_seatsUsed": 1,
        "_seatsTotal": 20,
        "_timeChecked": "2018-11-07T13:14:21.000000"
    }, {
        "_roomNumber": "165",
        "_address": "14 Innovation Walk, Clayton VIC 3170, Australia",
        "_lightsOn": true,
        "_heatingCoolingOn": true,
        "_seatsUsed": 2,
        "_seatsTotal": 18,
        "_timeChecked": "2018-09-27T14:03:22.000000"
    }, {
        "_roomNumber": "296",
        "_address": "18 Research Way, Clayton VIC 3170, Australia",
        "_lightsOn": false,
        "_heatingCoolingOn": true,
        "_seatsUsed": 6,
        "_seatsTotal": 11,
        "_timeChecked": "2018-06-17T11:03:23.000000"
    }, {
        "_roomNumber": "114",
        "_address": "25 Alliance Lane, Clayton VIC 3170, Australia",
        "_lightsOn": true,
        "_heatingCoolingOn": true,
        "_seatsUsed": 1,
        "_seatsTotal": 15,
        "_timeChecked": "2018-08-12T16:24:19.000000"
    }, {
        "_roomNumber": "314",
        "_address": "12 Alliance Lane, Clayton VIC 3170, Australia",
        "_lightsOn": true,
        "_heatingCoolingOn": true,
        "_seatsUsed": 1,
        "_seatsTotal": 14,
        "_timeChecked": "2018-04-05T12:35:17.000000"
    }, {
        "_roomNumber": "177",
        "_address": "2 Exhibition Walk, Clayton VIC 3170, Australia",
        "_lightsOn": true,
        "_heatingCoolingOn": false,
        "_seatsUsed": 0,
        "_seatsTotal": 0,
        "_timeChecked": "2018-03-14T11:25:53.000000"
    }, {
        "_roomNumber": "152",
        "_address": "11 Alliance Lane, Clayton VIC 3170, Australia",
        "_lightsOn": false,
        "_heatingCoolingOn": false,
        "_seatsUsed": 10,
        "_seatsTotal": 15,
        "_timeChecked": "2018-11-19T13:45:18.000000"
    }, {
        "_roomNumber": "384",
        "_address": "6 Chancellor's Walk, Clayton VIC 3170, Australia",
        "_lightsOn": false,
        "_heatingCoolingOn": true,
        "_seatsUsed": 0,
        "_seatsTotal": 1,
        "_timeChecked": "2018-12-17T17:13:18.000000"
    }, {
        "_roomNumber": "111",
        "_address": "3 College Walk, Clayton VIC 3170, Australia",
        "_lightsOn": true,
        "_heatingCoolingOn": true,
        "_seatsUsed": 4,
        "_seatsTotal": 8,
        "_timeChecked": "2018-03-21T14:55:52.000000"
    }, {
        "_roomNumber": "211",
        "_address": "9 Innovation Walk, Clayton VIC 3170, Australia",
        "_lightsOn": true,
        "_heatingCoolingOn": true,
        "_seatsUsed": 10,
        "_seatsTotal": 14,
        "_timeChecked": "2018-07-06T17:15:53.000000"
    }, {
        "_roomNumber": "195",
        "_address": "13 College Walk, Clayton VIC 3170, Australia",
        "_lightsOn": true,
        "_heatingCoolingOn": true,
        "_seatsUsed": 17,
        "_seatsTotal": 18,
        "_timeChecked": "2018-05-08T15:47:10.000000"
    }, {
        "_roomNumber": "345",
        "_address": "2 Exhibition Walk, Clayton VIC 3170, Australia",
        "_lightsOn": true,
        "_heatingCoolingOn": true,
        "_seatsUsed": 4,
        "_seatsTotal": 11,
        "_timeChecked": "2018-11-01T13:00:09.000000"
    }, {
        "_roomNumber": "284",
        "_address": "18 Chancellor's Walk, Clayton VIC 3170, Australia",
        "_lightsOn": true,
        "_heatingCoolingOn": true,
        "_seatsUsed": 14,
        "_seatsTotal": 19,
        "_timeChecked": "2018-05-04T17:04:52.000000"
    }, {
        "_roomNumber": "333",
        "_address": "23 Chancellor's Walk, Clayton VIC 3170, Australia",
        "_lightsOn": true,
        "_heatingCoolingOn": true,
        "_seatsUsed": 0,
        "_seatsTotal": 12,
        "_timeChecked": "2018-12-08T11:07:30.000000"
    }, {
        "_roomNumber": "268",
        "_address": "25 Alliance Lane, Clayton VIC 3170, Australia",
        "_lightsOn": false,
        "_heatingCoolingOn": true,
        "_seatsUsed": 0,
        "_seatsTotal": 9,
        "_timeChecked": "2018-01-16T09:45:37.000000"
    }, {
        "_roomNumber": "224",
        "_address": "10 Research Way, Clayton VIC 3170, Australia",
        "_lightsOn": true,
        "_heatingCoolingOn": true,
        "_seatsUsed": 0,
        "_seatsTotal": 7,
        "_timeChecked": "2018-04-01T10:49:51.000000"
    }, {
        "_roomNumber": "373",
        "_address": "20 Innovation Walk, Clayton VIC 3170, Australia",
        "_lightsOn": true,
        "_heatingCoolingOn": true,
        "_seatsUsed": 1,
        "_seatsTotal": 17,
        "_timeChecked": "2018-06-10T08:09:53.000000"
    }, {
        "_roomNumber": "161",
        "_address": "5 Research Way, Clayton VIC 3170, Australia",
        "_lightsOn": true,
        "_heatingCoolingOn": false,
        "_seatsUsed": 7,
        "_seatsTotal": 13,
        "_timeChecked": "2018-07-07T16:19:27.000000"
    }, {
        "_roomNumber": "344",
        "_address": "14 Innovation Walk, Clayton VIC 3170, Australia",
        "_lightsOn": true,
        "_heatingCoolingOn": true,
        "_seatsUsed": 1,
        "_seatsTotal": 1,
        "_timeChecked": "2018-01-12T11:55:33.000000"
    }, {
        "_roomNumber": "382",
        "_address": "24 College Walk, Clayton VIC 3170, Australia",
        "_lightsOn": false,
        "_heatingCoolingOn": true,
        "_seatsUsed": 5,
        "_seatsTotal": 5,
        "_timeChecked": "2018-08-24T14:34:59.000000"
    }, {
        "_roomNumber": "288",
        "_address": "8 Innovation Walk, Clayton VIC 3170, Australia",
        "_lightsOn": true,
        "_heatingCoolingOn": false,
        "_seatsUsed": 0,
        "_seatsTotal": 4,
        "_timeChecked": "2018-07-20T18:39:07.000000"
    }, {
        "_roomNumber": "365",
        "_address": "12 Research Way, Clayton VIC 3170, Australia",
        "_lightsOn": false,
        "_heatingCoolingOn": true,
        "_seatsUsed": 9,
        "_seatsTotal": 10,
        "_timeChecked": "2018-07-08T14:03:56.000000"
    }, {
        "_roomNumber": "122",
        "_address": "16 Chancellor's Walk, Clayton VIC 3170, Australia",
        "_lightsOn": false,
        "_heatingCoolingOn": false,
        "_seatsUsed": 1,
        "_seatsTotal": 2,
        "_timeChecked": "2018-05-19T16:18:12.000000"
    }, {
        "_roomNumber": "294",
        "_address": "6 Innovation Walk, Clayton VIC 3170, Australia",
        "_lightsOn": false,
        "_heatingCoolingOn": true,
        "_seatsUsed": 0,
        "_seatsTotal": 3,
        "_timeChecked": "2018-07-14T18:32:01.000000"
    }, {
        "_roomNumber": "131",
        "_address": "21 Exhibition Walk, Clayton VIC 3170, Australia",
        "_lightsOn": true,
        "_heatingCoolingOn": true,
        "_seatsUsed": 0,
        "_seatsTotal": 1,
        "_timeChecked": "2018-03-21T11:24:09.000000"
    }, {
        "_roomNumber": "134",
        "_address": "24 College Walk, Clayton VIC 3170, Australia",
        "_lightsOn": true,
        "_heatingCoolingOn": true,
        "_seatsUsed": 3,
        "_seatsTotal": 12,
        "_timeChecked": "2018-05-17T17:40:55.000000"
    }, {
        "_roomNumber": "311",
        "_address": "1 Alliance Lane, Clayton VIC 3170, Australia",
        "_lightsOn": false,
        "_heatingCoolingOn": true,
        "_seatsUsed": 1,
        "_seatsTotal": 19,
        "_timeChecked": "2018-12-20T16:12:10.000000"
    }, {
        "_roomNumber": "219",
        "_address": "8 College Walk, Clayton VIC 3170, Australia",
        "_lightsOn": false,
        "_heatingCoolingOn": false,
        "_seatsUsed": 6,
        "_seatsTotal": 7,
        "_timeChecked": "2018-09-09T22:22:11.189863"
    }, {
        "_roomNumber": "356",
        "_address": "17 Alliance Lane, Clayton VIC 3170, Australia",
        "_lightsOn": false,
        "_heatingCoolingOn": false,
        "_seatsUsed": 13,
        "_seatsTotal": 14,
        "_timeChecked": "2018-09-09T22:22:11.189888"
    }, {
        "_roomNumber": "113",
        "_address": "5 College Walk, Clayton VIC 3170, Australia",
        "_lightsOn": false,
        "_heatingCoolingOn": true,
        "_seatsUsed": 4,
        "_seatsTotal": 19,
        "_timeChecked": "2018-09-09T22:22:11.189909"
    }, {
        "_roomNumber": "246",
        "_address": "13 Innovation Walk, Clayton VIC 3170, Australia",
        "_lightsOn": true,
        "_heatingCoolingOn": false,
        "_seatsUsed": 4,
        "_seatsTotal": 14,
        "_timeChecked": "2018-09-09T22:22:11.189930"
    }, {
        "_roomNumber": "399",
        "_address": "3 Research Way, Clayton VIC 3170, Australia",
        "_lightsOn": false,
        "_heatingCoolingOn": true,
        "_seatsUsed": 4,
        "_seatsTotal": 7,
        "_timeChecked": "2018-09-09T22:22:11.189951"
    }, {
        "_roomNumber": "388",
        "_address": "1 Chancellor's Walk, Clayton VIC 3170, Australia",
        "_lightsOn": false,
        "_heatingCoolingOn": false,
        "_seatsUsed": 8,
        "_seatsTotal": 19,
        "_timeChecked": "2018-09-09T22:22:11.189972"
    }, {
        "_roomNumber": "396",
        "_address": "7 College Walk, Clayton VIC 3170, Australia",
        "_lightsOn": true,
        "_heatingCoolingOn": false,
        "_seatsUsed": 7,
        "_seatsTotal": 19,
        "_timeChecked": "2018-09-09T22:22:11.189993"
    }, {
        "_roomNumber": "142",
        "_address": "4 Exhibition Walk, Clayton VIC 3170, Australia",
        "_lightsOn": true,
        "_heatingCoolingOn": false,
        "_seatsUsed": 16,
        "_seatsTotal": 19,
        "_timeChecked": "2018-09-09T22:22:11.190013"
    }, {
        "_roomNumber": "143",
        "_address": "5 Research Way, Clayton VIC 3170, Australia",
        "_lightsOn": false,
        "_heatingCoolingOn": true,
        "_seatsUsed": 0,
        "_seatsTotal": 7,
        "_timeChecked": "2018-09-09T22:22:11.190034"
    }, {
        "_roomNumber": "146",
        "_address": "6 Innovation Walk, Clayton VIC 3170, Australia",
        "_lightsOn": false,
        "_heatingCoolingOn": true,
        "_seatsUsed": 2,
        "_seatsTotal": 15,
        "_timeChecked": "2018-09-09T22:22:11.190056"
    }, {
        "_roomNumber": "324",
        "_address": "12 Research Way, Clayton VIC 3170, Australia",
        "_lightsOn": false,
        "_heatingCoolingOn": true,
        "_seatsUsed": 7,
        "_seatsTotal": 19,
        "_timeChecked": "2018-09-09T22:22:11.190077"
    }, {
        "_roomNumber": "389",
        "_address": "10 Exhibition Walk, Clayton VIC 3170, Australia",
        "_lightsOn": false,
        "_heatingCoolingOn": false,
        "_seatsUsed": 0,
        "_seatsTotal": 15,
        "_timeChecked": "2018-09-09T22:22:11.190097"
    }, {
        "_roomNumber": "257",
        "_address": "5 Innovation Walk, Clayton VIC 3170, Australia",
        "_lightsOn": true,
        "_heatingCoolingOn": true,
        "_seatsUsed": 2,
        "_seatsTotal": 8,
        "_timeChecked": "2018-09-09T22:22:11.190118"
    }, {
        "_roomNumber": "354",
        "_address": "22 College Walk, Clayton VIC 3170, Australia",
        "_lightsOn": false,
        "_heatingCoolingOn": false,
        "_seatsUsed": 1,
        "_seatsTotal": 6,
        "_timeChecked": "2018-09-09T22:22:11.190140"
    }, {
        "_roomNumber": "125",
        "_address": "24 Alliance Lane, Clayton VIC 3170, Australia",
        "_lightsOn": true,
        "_heatingCoolingOn": true,
        "_seatsUsed": 11,
        "_seatsTotal": 17,
        "_timeChecked": "2018-09-09T22:22:11.190160"
    }, {
        "_roomNumber": "281",
        "_address": "20 College Walk, Clayton VIC 3170, Australia",
        "_lightsOn": true,
        "_heatingCoolingOn": true,
        "_seatsUsed": 5,
        "_seatsTotal": 10,
        "_timeChecked": "2018-09-09T22:22:11.190181"
    }, {
        "_roomNumber": "185",
        "_address": "1 Chancellor's Walk, Clayton VIC 3170, Australia",
        "_lightsOn": false,
        "_heatingCoolingOn": false,
        "_seatsUsed": 5,
        "_seatsTotal": 11,
        "_timeChecked": "2018-09-09T22:22:11.190202"
    }, {
        "_roomNumber": "389",
        "_address": "10 Innovation Walk, Clayton VIC 3170, Australia",
        "_lightsOn": true,
        "_heatingCoolingOn": true,
        "_seatsUsed": 8,
        "_seatsTotal": 13,
        "_timeChecked": "2018-09-09T22:22:11.190223"
    }, {
        "_roomNumber": "327",
        "_address": "23 Exhibition Walk, Clayton VIC 3170, Australia",
        "_lightsOn": false,
        "_heatingCoolingOn": true,
        "_seatsUsed": 8,
        "_seatsTotal": 17,
        "_timeChecked": "2018-09-09T22:22:11.190244"
    }, {
        "_roomNumber": "157",
        "_address": "15 Chancellor's Walk, Clayton VIC 3170, Australia",
        "_lightsOn": true,
        "_heatingCoolingOn": true,
        "_seatsUsed": 10,
        "_seatsTotal": 16,
        "_timeChecked": "2018-09-09T22:22:11.190265"
    }, {
        "_roomNumber": "378",
        "_address": "4 College Walk, Clayton VIC 3170, Australia",
        "_lightsOn": false,
        "_heatingCoolingOn": false,
        "_seatsUsed": 4,
        "_seatsTotal": 12,
        "_timeChecked": "2018-09-09T22:22:11.190286"
    }, {
        "_roomNumber": "115",
        "_address": "8 Innovation Walk, Clayton VIC 3170, Australia",
        "_lightsOn": true,
        "_heatingCoolingOn": false,
        "_seatsUsed": 0,
        "_seatsTotal": 0,
        "_timeChecked": "2018-09-09T22:22:11.190307"
    }, {
        "_roomNumber": "385",
        "_address": "25 Exhibition Walk, Clayton VIC 3170, Australia",
        "_lightsOn": false,
        "_heatingCoolingOn": true,
        "_seatsUsed": 1,
        "_seatsTotal": 1,
        "_timeChecked": "2018-09-09T22:22:11.190328"
    }, {
        "_roomNumber": "128",
        "_address": "15 Research Way, Clayton VIC 3170, Australia",
        "_lightsOn": false,
        "_heatingCoolingOn": false,
        "_seatsUsed": 9,
        "_seatsTotal": 9,
        "_timeChecked": "2018-09-09T22:22:11.190349"
    }, {
        "_roomNumber": "313",
        "_address": "20 College Walk, Clayton VIC 3170, Australia",
        "_lightsOn": true,
        "_heatingCoolingOn": false,
        "_seatsUsed": 1,
        "_seatsTotal": 18,
        "_timeChecked": "2018-09-09T22:22:11.190370"
    }, {
        "_roomNumber": "344",
        "_address": "10 Research Way, Clayton VIC 3170, Australia",
        "_lightsOn": false,
        "_heatingCoolingOn": true,
        "_seatsUsed": 11,
        "_seatsTotal": 11,
        "_timeChecked": "2018-09-09T22:22:11.190391"
    }, {
        "_roomNumber": "397",
        "_address": "4 Innovation Walk, Clayton VIC 3170, Australia",
        "_lightsOn": true,
        "_heatingCoolingOn": false,
        "_seatsUsed": 5,
        "_seatsTotal": 7,
        "_timeChecked": "2018-09-09T22:22:11.190412"
    }, {
        "_roomNumber": "353",
        "_address": "11 Research Way, Clayton VIC 3170, Australia",
        "_lightsOn": true,
        "_heatingCoolingOn": true,
        "_seatsUsed": 6,
        "_seatsTotal": 6,
        "_timeChecked": "2018-09-09T22:22:11.190433"
    }, {
        "_roomNumber": "357",
        "_address": "10 Exhibition Walk, Clayton VIC 3170, Australia",
        "_lightsOn": true,
        "_heatingCoolingOn": false,
        "_seatsUsed": 1,
        "_seatsTotal": 4,
        "_timeChecked": "2018-09-09T22:22:11.190454"
    }, {
        "_roomNumber": "362",
        "_address": "1 Chancellor's Walk, Clayton VIC 3170, Australia",
        "_lightsOn": true,
        "_heatingCoolingOn": true,
        "_seatsUsed": 4,
        "_seatsTotal": 13,
        "_timeChecked": "2018-09-09T22:22:11.190474"
    }, {
        "_roomNumber": "343",
        "_address": "23 Exhibition Walk, Clayton VIC 3170, Australia",
        "_lightsOn": true,
        "_heatingCoolingOn": true,
        "_seatsUsed": 0,
        "_seatsTotal": 1,
        "_timeChecked": "2018-09-09T22:22:11.190496"
    }, {
        "_roomNumber": "277",
        "_address": "1 Chancellor's Walk, Clayton VIC 3170, Australia",
        "_lightsOn": false,
        "_heatingCoolingOn": false,
        "_seatsUsed": 7,
        "_seatsTotal": 8,
        "_timeChecked": "2018-09-09T22:22:11.190516"
    }, {
        "_roomNumber": "293",
        "_address": "15 College Walk, Clayton VIC 3170, Australia",
        "_lightsOn": false,
        "_heatingCoolingOn": true,
        "_seatsUsed": 6,
        "_seatsTotal": 13,
        "_timeChecked": "2018-09-09T22:22:11.190537"
    }, {
        "_roomNumber": "152",
        "_address": "18 Innovation Walk, Clayton VIC 3170, Australia",
        "_lightsOn": false,
        "_heatingCoolingOn": false,
        "_seatsUsed": 6,
        "_seatsTotal": 9,
        "_timeChecked": "2018-09-09T22:22:11.190558"
    }, {
        "_roomNumber": "264",
        "_address": "12 Research Way, Clayton VIC 3170, Australia",
        "_lightsOn": true,
        "_heatingCoolingOn": false,
        "_seatsUsed": 11,
        "_seatsTotal": 20,
        "_timeChecked": "2018-09-09T22:22:11.190579"
    }, {
        "_roomNumber": "364",
        "_address": "17 Chancellor's Walk, Clayton VIC 3170, Australia",
        "_lightsOn": true,
        "_heatingCoolingOn": true,
        "_seatsUsed": 7,
        "_seatsTotal": 9,
        "_timeChecked": "2018-09-09T22:22:11.190600"
    }, {
        "_roomNumber": "315",
        "_address": "20 Chancellor's Walk, Clayton VIC 3170, Australia",
        "_lightsOn": false,
        "_heatingCoolingOn": true,
        "_seatsUsed": 2,
        "_seatsTotal": 10,
        "_timeChecked": "2018-09-09T22:22:11.190621"
    }, {
        "_roomNumber": "115",
        "_address": "6 Chancellor's Walk, Clayton VIC 3170, Australia",
        "_lightsOn": true,
        "_heatingCoolingOn": true,
        "_seatsUsed": 5,
        "_seatsTotal": 6,
        "_timeChecked": "2018-09-09T22:22:11.190642"
    }, {
        "_roomNumber": "181",
        "_address": "4 Research Way, Clayton VIC 3170, Australia",
        "_lightsOn": false,
        "_heatingCoolingOn": true,
        "_seatsUsed": 7,
        "_seatsTotal": 20,
        "_timeChecked": "2018-09-09T22:22:11.190663"
    }, {
        "_roomNumber": "237",
        "_address": "16 Innovation Walk, Clayton VIC 3170, Australia",
        "_lightsOn": false,
        "_heatingCoolingOn": true,
        "_seatsUsed": 1,
        "_seatsTotal": 8,
        "_timeChecked": "2018-09-09T22:22:11.190684"
    }]
}
